{
  "namespace": "attributes",
  "namespace_id": 4,
  "objects": [
    {
      "employee_type": {
        "associate": [
          "userAssociate01",
          "userAssociate02",
          "userAssociate03"
        ],
        "consultant": [
          "userConsultant01"
        ]
      }
    }
  ]
}
